[
  {
    "name": "cloud-2",
    "image": "${app_image}",
    "essential": true,
    "memoryReservation": 256,
    "portMappings": [{
      "containerPort": 8080,
       "hostPort": 8080
    }],
    "logConfiguration": {
      "logDriver": "awslogs",
      "options": {
        "awslogs-group": "${log_group_name}",
        "awslogs-region": "${log_group_region}",
        "awslogs-stream-prefix": "cloud-2"
      }
    }
  }
]
